<?xml version="1.0" encoding="UTF-8" standalone="no"?>
<svg
   xmlns:dc="http://purl.org/dc/elements/1.1/"
   xmlns:cc="http://creativecommons.org/ns#"
   xmlns:rdf="http://www.w3.org/1999/02/22-rdf-syntax-ns#"
   xmlns:svg="http://www.w3.org/2000/svg"
   xmlns="http://www.w3.org/2000/svg"
   id="svg3886"
   version="1.1"
   viewBox="0 0 50 70"
   height="70"
   width="50">
  <g
     transform="translate(-25,-285.54165)"
     id="layer1">
    <path
       id="path4885"
       d="m 40,285.54165 h 20 v 40 h 16 l -26,30 -25,-30 h 15 v -40"
       style="fill:#e60000;fill-opacity:1;stroke:none;stroke-width:1px;stroke-linecap:butt;stroke-linejoin:miter;stroke-opacity:1" />
  </g>
</svg>
